код физ.лица;должность;код услуги;код программы;код юр.лица;тип обучения;тип документа;дата итог.док.;дата приказа об окончании;номер документа;дата итог тест;дата вед. итог тест;дата вед. пром. тест;дата пром. тест;дата приказ о зачислении;дата заявления;номер договора
13755;;45;250;13618;3;1;3/18/2019;3/18/2019;ПК19/03-Д7C50;3/18/2019;3/18/2019;3/12/2019;3/12/2019;3/5/2019;3/4/2019;190225-9К
13757;;45;250;13618;3;1;3/18/2019;3/18/2019;ПК19/03-ЕФ466;3/18/2019;3/18/2019;3/12/2019;3/12/2019;3/5/2019;3/4/2019;190225-9К
13863;;13;116;13862;3;1;3/27/2019;3/27/2019;ПК19/03-1Е593;3/27/2019;3/27/2019;3/21/2019;3/21/2019;3/15/2019;3/14/2019;190312-10ПК-ФЛ
13691;;46;251;13528;3;1;3/15/2019;3/15/2019;ПК19/03-Д0ДБC;3/15/2019;3/15/2019;3/3/2019;3/3/2019;2/19/2019;2/18/2019;190211-21К
13692;;46;251;13528;3;1;3/15/2019;3/15/2019;ПК19/03-ДФА6А;3/15/2019;3/15/2019;3/3/2019;3/3/2019;2/19/2019;2/18/2019;190211-21К
13756;;45;252;13618;3;1;3/18/2019;3/18/2019;ПК19/03-Е6Д7Б;3/18/2019;3/18/2019;3/12/2019;3/12/2019;3/5/2019;3/4/2019;190225-9К
12436;;11;1;3981;3;1;1/21/2019;1/21/2019;ПК19/01-Е3615;1/21/2019;1/21/2019;1/15/2019;1/15/2019;1/9/2019;1/8/2019;190109-4К
12437;;11;1;3981;3;1;1/21/2019;1/21/2019;ПК19/01-ЕДФ79;1/21/2019;1/21/2019;1/15/2019;1/15/2019;1/9/2019;1/8/2019;190109-4К
15527;;47;666;6822;1;1;6/21/2019;6/21/2019;ПК-Э19/06-6Б33Ф;6/21/2019;6/21/2019;6/19/2019;6/19/2019;6/17/2019;6/16/2019;190610-1К
13737;;95;224;13716;3;1;3/18/2019;3/18/2019;ПК19/03-Е1548;3/18/2019;3/18/2019;3/8/2019;3/8/2019;2/26/2019;2/25/2019;190225-14К
13738;;95;224;13716;3;1;3/18/2019;3/18/2019;ПК19/03-ЕФ719;3/18/2019;3/18/2019;3/8/2019;3/8/2019;2/26/2019;2/25/2019;190225-14К
13739;;95;224;13716;3;1;3/18/2019;3/18/2019;ПК19/03-03445;3/18/2019;3/18/2019;3/8/2019;3/8/2019;2/26/2019;2/25/2019;190225-14К
13740;;95;224;13716;3;1;3/18/2019;3/18/2019;ПК19/03-0Б57C;3/18/2019;3/18/2019;3/8/2019;3/8/2019;2/26/2019;2/25/2019;190225-14К
13741;;95;224;13716;3;1;3/18/2019;3/18/2019;ПК19/03-137ФЕ;3/18/2019;3/18/2019;3/8/2019;3/8/2019;2/26/2019;2/25/2019;190225-14К
13742;;95;224;13716;3;1;3/18/2019;3/18/2019;ПК19/03-1Б645;3/18/2019;3/18/2019;3/8/2019;3/8/2019;2/26/2019;2/25/2019;190225-14К
13743;;95;224;13716;3;1;3/18/2019;3/18/2019;ПК19/03-24080;3/18/2019;3/18/2019;3/8/2019;3/8/2019;2/26/2019;2/25/2019;190225-14К
13744;;95;224;13716;3;1;3/18/2019;3/18/2019;ПК19/03-2CА54;3/18/2019;3/18/2019;3/8/2019;3/8/2019;2/26/2019;2/25/2019;190225-14К
13745;;95;224;13716;3;1;3/18/2019;3/18/2019;ПК19/03-3536Ф;3/18/2019;3/18/2019;3/8/2019;3/8/2019;2/26/2019;2/25/2019;190225-14К
13746;;95;224;13716;3;1;3/18/2019;3/18/2019;ПК19/03-3ДC2Е;3/18/2019;3/18/2019;3/8/2019;3/8/2019;2/26/2019;2/25/2019;190225-14К
13747;;95;224;13716;3;1;3/18/2019;3/18/2019;ПК19/03-46560;3/18/2019;3/18/2019;3/8/2019;3/8/2019;2/26/2019;2/25/2019;190225-14К
13733;;44;261;13732;3;1;3/19/2019;3/19/2019;ПК19/03-68646;3/19/2019;3/19/2019;3/10/2019;3/10/2019;2/28/2019;2/27/2019;190225-16К
13767;;44;261;13732;3;1;3/19/2019;3/19/2019;ПК19/03-776C0;3/19/2019;3/19/2019;3/10/2019;3/10/2019;2/28/2019;2/27/2019;190225-16К
13808;;49;303;12606;3;1;3/21/2019;3/21/2019;ПК19/03-Е8Ф56;3/21/2019;3/21/2019;3/7/2019;3/7/2019;2/21/2019;2/20/2019;190124-1К
13809;;49;303;12606;3;1;3/21/2019;3/21/2019;ПК19/03-047Ф7;3/21/2019;3/21/2019;3/7/2019;3/7/2019;2/21/2019;2/20/2019;190124-1К
20198;Начальник отдела технической документации;40;263;4465;3;4;1/25/2019;1/25/2019;0125-АА-ОТ;1/25/2019;1/25/2019;1/23/2019;1/23/2019;1/21/2019;1/20/2019;190116-3К
20199;Директор по строительству;40;263;11755;3;4;1/25/2019;1/25/2019;0125-АВ-ОТ;1/25/2019;1/25/2019;1/23/2019;1/23/2019;1/21/2019;1/20/2019;190121-3К
8579;Индивидуальный предприниматель;40;263;7742;3;4;1/29/2019;1/29/2019;0129-АА-ОТ;1/29/2019;1/29/2019;1/26/2019;1/26/2019;1/23/2019;1/22/2019;190117-3К
7743;Индивидуальный предприниматель;40;263;7742;3;4;1/29/2019;1/29/2019;0129-АБ-ОТ;1/29/2019;1/29/2019;1/26/2019;1/26/2019;1/23/2019;1/22/2019;190117-3К
20200;Технический директор;40;263;12838;3;4;1/30/2019;1/30/2019;0130-АБ-ОТ;1/30/2019;1/30/2019;1/27/2019;1/27/2019;1/24/2019;1/23/2019;190123-4К
12835;Генеральный директор;40;263;12833;3;4;2/5/2019;2/5/2019;0205-АА-ОТ;2/5/2019;2/5/2019;2/2/2019;2/2/2019;1/30/2019;1/29/2019;190123-3К
20201;Главный Энергетик;40;263;12833;3;4;2/5/2019;2/5/2019;0205-АБ-ОТ;2/5/2019;2/5/2019;2/2/2019;2/2/2019;1/30/2019;1/29/2019;190123-3К
20202;Электромонтажник;40;263;12833;3;4;2/5/2019;2/5/2019;0205-АВ-ОТ;2/5/2019;2/5/2019;2/2/2019;2/2/2019;1/30/2019;1/29/2019;190123-3К
13013;Механик;40;263;12999;3;4;2/7/2019;2/7/2019;0201-АА-ОТ;2/7/2019;2/7/2019;2/4/2019;2/4/2019;2/1/2019;1/31/2019;190128-5К
13014;Технический директор;40;263;12999;3;4;2/7/2019;2/7/2019;0201-АБ-ОТ;2/7/2019;2/7/2019;2/4/2019;2/4/2019;2/1/2019;1/31/2019;190128-5К
13000;Генеральный директор;40;263;12999;3;4;2/7/2019;2/7/2019;0201-АВ-ОТ;2/7/2019;2/7/2019;2/4/2019;2/4/2019;2/1/2019;1/31/2019;190128-5К
3797;Генеральный директор;40;263;3796;3;4;2/7/2019;2/7/2019;0201-АГ-ОТ;2/7/2019;2/7/2019;2/4/2019;2/4/2019;2/1/2019;1/31/2019;190128-4К
20203;Главный инженер;40;263;3796;3;4;2/7/2019;2/7/2019;0201-АД-ОТ;2/7/2019;2/7/2019;2/4/2019;2/4/2019;2/1/2019;1/31/2019;190128-4К
20204;Ведущий инженер;40;263;3796;3;4;2/7/2019;2/7/2019;0201-АЖ-ОТ;2/7/2019;2/7/2019;2/4/2019;2/4/2019;2/1/2019;1/31/2019;190128-4К
12596;Генеральный директор;40;263;12595;3;4;2/8/2019;2/8/2019;190208-АА-ОТ;2/8/2019;2/8/2019;2/6/2019;2/6/2019;2/4/2019;2/3/2019;190114-5К
6797;Генеральный директор;40;263;6796;3;4;2/5/2019;2/5/2019;190205-АБ-ОТ;2/5/2019;2/5/2019;2/2/2019;2/2/2019;1/30/2019;1/29/2019;190130-1К
13138;Директор по режиму;40;263;12709;3;4;2/5/2019;2/5/2019;190205-АЖ-ОТ;2/5/2019;2/5/2019;2/2/2019;2/2/2019;1/30/2019;1/29/2019;190130-2К
13231;Директор;40;263;13230;3;4;2/18/2019;2/18/2019;190218-АА-ОТ;2/18/2019;2/18/2019;2/15/2019;2/15/2019;2/12/2019;2/11/2019;190205-4К
20205;Директор по развитию;40;263;13230;3;4;2/18/2019;2/18/2019;190218-АБ-ОТ;2/18/2019;2/18/2019;2/15/2019;2/15/2019;2/12/2019;2/11/2019;190205-4К
20206;Начальник участка ПНР;40;263;13230;3;4;2/18/2019;2/18/2019;190218-АВ-ОТ;2/18/2019;2/18/2019;2/15/2019;2/15/2019;2/12/2019;2/11/2019;190205-4К
20207;Инженер-наладчик;40;263;13230;3;4;2/18/2019;2/18/2019;190218-АГ-ОТ;2/18/2019;2/18/2019;2/15/2019;2/15/2019;2/12/2019;2/11/2019;190205-4К
20208;Инженер-наладчик;40;263;13230;3;4;2/18/2019;2/18/2019;190218-АД-ОТ;2/18/2019;2/18/2019;2/15/2019;2/15/2019;2/12/2019;2/11/2019;190205-4К
20209;Инженер-наладчик;40;263;13230;3;4;2/18/2019;2/18/2019;190218-АЖ-ОТ;2/18/2019;2/18/2019;2/15/2019;2/15/2019;2/12/2019;2/11/2019;190205-4К
20210;Инженер-наладчик;40;263;13230;3;4;2/18/2019;2/18/2019;190218-АЗ-ОТ;2/18/2019;2/18/2019;2/15/2019;2/15/2019;2/12/2019;2/11/2019;190205-4К
20211;Инженер-наладчик;40;263;13230;3;4;2/18/2019;2/18/2019;190218-АИ-ОТ;2/18/2019;2/18/2019;2/15/2019;2/15/2019;2/12/2019;2/11/2019;190205-4К
20212;Инженер-наладчик;40;263;13230;3;4;2/18/2019;2/18/2019;190218-АК-ОТ;2/18/2019;2/18/2019;2/15/2019;2/15/2019;2/12/2019;2/11/2019;190205-4К
20213;Инженер-наладчик;40;263;13230;3;4;2/18/2019;2/18/2019;190218-АЛ-ОТ;2/18/2019;2/18/2019;2/15/2019;2/15/2019;2/12/2019;2/11/2019;190205-4К
20214;Техник-наладчик;40;263;13230;3;4;2/18/2019;2/18/2019;190218-АМ-ОТ;2/18/2019;2/18/2019;2/15/2019;2/15/2019;2/12/2019;2/11/2019;190205-4К
9153;Старший инженер ОККиМ;40;263;4465;3;4;2/22/2019;2/22/2019;19022-АА-ОТ;2/22/2019;2/22/2019;2/20/2019;2/20/2019;2/18/2019;2/17/2019;190212-4К
20215;Главный инженер;40;263;9784;3;4;2/22/2019;2/22/2019;190222-АВ-ОТ;2/22/2019;2/22/2019;2/20/2019;2/20/2019;2/18/2019;2/17/2019;190218-5К
13386;Генеральный директор;40;263;13385;3;4;2/28/2019;2/28/2019;190228-АА-ОТ;2/28/2019;2/28/2019;2/25/2019;2/25/2019;2/22/2019;2/21/2019;190220-3К
11907;Генеральный директор;40;263;11906;3;4;2/28/2019;2/28/2019;190228-АБ-ОТ;2/28/2019;2/28/2019;2/25/2019;2/25/2019;2/22/2019;2/21/2019;190219-1К
20216;Технический директор;40;263;11906;3;4;2/28/2019;2/28/2019;190228-АВ-ОТ;2/28/2019;2/28/2019;2/25/2019;2/25/2019;2/22/2019;2/21/2019;190219-1К
20217;Нач.отдела СИЗ;40;263;11906;3;4;2/28/2019;2/28/2019;190228-АГ-ОТ;2/28/2019;2/28/2019;2/25/2019;2/25/2019;2/22/2019;2/21/2019;190219-1К
5116;Генеральный директор;40;263;5115;3;4;2/28/2019;2/28/2019;190228-АЕ-ОТ;2/28/2019;2/28/2019;2/25/2019;2/25/2019;2/22/2019;2/21/2019;190220-2К
20218;Начальник производства;40;263;13440;3;4;2/22/2019;2/22/2019;190222-АГ-ОТ;2/22/2019;2/22/2019;2/20/2019;2/20/2019;2/18/2019;2/17/2019;190218-8К
18555;Заместитель директора по строительству;40;263;13440;3;4;2/22/2019;2/22/2019;190222-АД-ОТ;2/22/2019;2/22/2019;2/20/2019;2/20/2019;2/18/2019;2/17/2019;190218-8К
13442;Директор;40;263;13440;3;4;2/22/2019;2/22/2019;190222-АЕ-ОТ;2/22/2019;2/22/2019;2/20/2019;2/20/2019;2/18/2019;2/17/2019;190218-8К
18559;Главный технолог;40;263;13440;3;4;2/22/2019;2/22/2019;190222-АЖ-ОТ;2/22/2019;2/22/2019;2/20/2019;2/20/2019;2/18/2019;2/17/2019;190218-8К
16926;Главный инженер;40;263;9916;3;4;2/22/2019;2/22/2019;190222-АИ-ОТ;2/22/2019;2/22/2019;2/20/2019;2/20/2019;2/18/2019;2/17/2019;190218-4К
20219;производитель работ;40;263;13513;3;4;3/5/2019;3/5/2019;190305-АА-ОТ;3/5/2019;3/5/2019;3/2/2019;3/2/2019;2/27/2019;2/26/2019;190221-6К
13092;Генеральный директор;40;263;13091;3;4;3/5/2019;3/5/2019;190305-АБ-ОТ;3/5/2019;3/5/2019;3/2/2019;3/2/2019;2/27/2019;2/26/2019;190115-3К
13564;Начальник ПТО;40;263;13091;3;4;3/5/2019;3/5/2019;190305-АВ-ОТ;3/5/2019;3/5/2019;3/2/2019;3/2/2019;2/27/2019;2/26/2019;190115-3К
13471;Индивидуальный предприниматель;40;263;13470;3;4;3/5/2019;3/5/2019;190305-АГ-ОТ;3/5/2019;3/5/2019;3/2/2019;3/2/2019;2/27/2019;2/26/2019;190220-4К
13636;Руководитель группы проектно-конструкторского отдела;40;263;13544;3;4;3/6/2019;3/6/2019;190306-АА-ОТ;3/6/2019;3/6/2019;3/3/2019;3/3/2019;2/28/2019;2/27/2019;190109-26К
13637;Заместитель генерального директора;40;263;13544;3;4;3/6/2019;3/6/2019;190306-АБ-ОТ;3/6/2019;3/6/2019;3/3/2019;3/3/2019;2/28/2019;2/27/2019;190109-26К
13639;Начальник отдела обследований и экспертизы зданий и сооружений;40;263;13544;3;4;3/6/2019;3/6/2019;190306-АВ-ОТ;3/6/2019;3/6/2019;3/3/2019;3/3/2019;2/28/2019;2/27/2019;190109-26К
13566;Генеральный директор;40;263;13565;3;4;3/14/2019;3/14/2019;190314-АА-ОТ;3/14/2019;3/14/2019;3/11/2019;3/11/2019;3/7/2019;3/6/2019;190304-3К
20220;Специалист по монтажу и ремонту систем противопожарной защиты;40;263;7435;3;4;3/7/2019;3/7/2019;190307-АБ-ОТ;3/7/2019;3/7/2019;3/4/2019;3/4/2019;3/1/2019;2/28/2019;190211-22К
13706;Индивидуальный предприниматель;40;263;13705;3;4;3/19/2019;3/19/2019;190319-АА-ОТ;3/19/2019;3/19/2019;3/16/2019;3/16/2019;3/13/2019;3/12/2019;190311-2К
13710;Генеральный директор;40;263;13709;3;4;3/19/2019;3/19/2019;190319-АБ-ОТ;3/19/2019;3/19/2019;3/16/2019;3/16/2019;3/13/2019;3/12/2019;190311-3К
20221;Главный инженер;40;263;13815;3;4;3/20/2019;3/20/2019;190314-АВ-ОТ;3/20/2019;3/20/2019;3/17/2019;3/17/2019;3/14/2019;3/13/2019;190311-8К
20222;Начальник участка ГНБ;40;263;13815;3;4;3/20/2019;3/20/2019;190314-АГ-ОТ;3/20/2019;3/20/2019;3/17/2019;3/17/2019;3/14/2019;3/13/2019;190311-8К
20223;Директор;40;263;13870;3;4;3/21/2019;3/21/2019;190321-АА-ОТ;3/21/2019;3/21/2019;3/18/2019;3/18/2019;3/15/2019;3/14/2019;190314-2К
20224;Технический директор;40;263;13870;3;4;3/21/2019;3/21/2019;190321-АБ-ОТ;3/21/2019;3/21/2019;3/18/2019;3/18/2019;3/15/2019;3/14/2019;190314-2К
13636;Руководитель группы проектно-конструкторского отдела;40;263;13908;3;4;3/22/2019;3/22/2019;190322-АА-ОТ;3/22/2019;3/22/2019;3/20/2019;3/20/2019;3/18/2019;3/17/2019;190314-11К
13637;Заместитель генерального директора;40;263;13908;3;4;3/22/2019;3/22/2019;190322-АБ-ОТ;3/22/2019;3/22/2019;3/20/2019;3/20/2019;3/18/2019;3/17/2019;190314-11К
13639;Начальник отдела обследований и экспертизы зданий и сооружений;40;263;13908;3;4;3/22/2019;3/22/2019;190322-АВ-ОТ;3/22/2019;3/22/2019;3/20/2019;3/20/2019;3/18/2019;3/17/2019;190314-11К
20225;Генеральный директор;40;263;6187;3;4;3/22/2019;3/22/2019;190322-АГ-ОТ;3/22/2019;3/22/2019;3/20/2019;3/20/2019;3/18/2019;3/17/2019;190312-5К
20226;Главный специалист;40;263;6187;3;4;3/22/2019;3/22/2019;190322-АД-ОТ;3/22/2019;3/22/2019;3/20/2019;3/20/2019;3/18/2019;3/17/2019;190312-5К
18283;Главный специалист;40;263;6187;3;4;3/22/2019;3/22/2019;190322-АЖ-ОТ;3/22/2019;3/22/2019;3/20/2019;3/20/2019;3/18/2019;3/17/2019;190312-5К
14028;Генеральный директор;40;263;14027;3;4;3/29/2019;3/29/2019;190329-АБ-ОТ;3/29/2019;3/29/2019;3/27/2019;3/27/2019;3/25/2019;3/24/2019;190318-14К
20227;Главный инженер;40;263;10687;3;4;3/29/2019;3/29/2019;190329-АВ-ОТ;3/29/2019;3/29/2019;3/27/2019;3/27/2019;3/25/2019;3/24/2019;190320-2К
18065;Мастер;40;263;10687;3;4;3/29/2019;3/29/2019;190329-АГ-ОТ;3/29/2019;3/29/2019;3/27/2019;3/27/2019;3/25/2019;3/24/2019;190320-2К
18194;Мастер;40;263;10687;3;4;3/29/2019;3/29/2019;190329-АД-ОТ;3/29/2019;3/29/2019;3/27/2019;3/27/2019;3/25/2019;3/24/2019;190320-2К
4214;Директор;40;263;6574;3;4;3/29/2019;3/29/2019;190329-АЖ-ОТ;3/29/2019;3/29/2019;3/27/2019;3/27/2019;3/25/2019;3/24/2019;190325-5К
19960;Руководитель проектов;40;263;3798;3;4;3/25/2019;3/25/2019;190325-АЛ-ОТ;3/25/2019;3/25/2019;3/22/2019;3/22/2019;3/19/2019;3/18/2019;190318-9К
20228;Начальник участка;40;263;14025;3;4;3/25/2019;3/25/2019;190325-АМ-ОТ;3/25/2019;3/25/2019;3/22/2019;3/22/2019;3/19/2019;3/18/2019;190318-13К
13600;Генеральный директор;40;263;13599;3;4;3/25/2019;3/25/2019;190325-АН-ОТ;3/25/2019;3/25/2019;3/22/2019;3/22/2019;3/19/2019;3/18/2019;190304-4К
46;Директор;40;263;13873;3;4;3/22/2019;3/22/2019;190322-АИ-ОТ;3/22/2019;3/22/2019;3/20/2019;3/20/2019;3/18/2019;3/17/2019;190314-3К
20229;Главный инженер;40;263;13873;3;4;3/22/2019;3/22/2019;190322-АК-ОТ;3/22/2019;3/22/2019;3/20/2019;3/20/2019;3/18/2019;3/17/2019;190314-3К
20230;Главный энергетик;40;263;13873;3;4;3/22/2019;3/22/2019;190322-АЛ-ОТ;3/22/2019;3/22/2019;3/20/2019;3/20/2019;3/18/2019;3/17/2019;190314-3К
973;Директор;40;263;13881;3;4;4/4/2019;4/4/2019;190404-АБ-ОТ;4/4/2019;4/4/2019;4/1/2019;4/1/2019;3/29/2019;3/28/2019;190314-6К
20229;Главный инженер;40;263;13881;3;4;4/4/2019;4/4/2019;190404-АВ-ОТ;4/4/2019;4/4/2019;4/1/2019;4/1/2019;3/29/2019;3/28/2019;190314-6К
20230;Главный энергетик;40;263;13881;3;4;4/4/2019;4/4/2019;190404-АГ-ОТ;4/4/2019;4/4/2019;4/1/2019;4/1/2019;3/29/2019;3/28/2019;190314-6К
20233;Главный механик;40;263;13881;3;4;4/4/2019;4/4/2019;190404-АД-ОТ;4/4/2019;4/4/2019;4/1/2019;4/1/2019;3/29/2019;3/28/2019;190314-6К
4251;Начальник БСУ;40;263;13881;3;4;4/4/2019;4/4/2019;190404-АЖ-ОТ;4/4/2019;4/4/2019;4/1/2019;4/1/2019;3/29/2019;3/28/2019;190314-6К
20234;Начальник цеха ПВХ;40;263;13881;3;4;4/4/2019;4/4/2019;190404-АЗ-ОТ;4/4/2019;4/4/2019;4/1/2019;4/1/2019;3/29/2019;3/28/2019;190314-6К
20235;Начальник цеха столярных изделий;40;263;13881;3;4;4/4/2019;4/4/2019;190404-АИ-ОТ;4/4/2019;4/4/2019;4/1/2019;4/1/2019;3/29/2019;3/28/2019;190314-6К
20236;Технический директор;40;263;14114;3;4;3/29/2019;3/29/2019;190329-АИ-ОТ;3/29/2019;3/29/2019;3/27/2019;3/27/2019;3/25/2019;3/24/2019;190325-8К
20237;Главный технолог;40;263;14114;3;4;3/29/2019;3/29/2019;190329-АК-ОТ;3/29/2019;3/29/2019;3/27/2019;3/27/2019;3/25/2019;3/24/2019;190325-8К
14115;Генеральный директор;40;263;14114;3;4;3/29/2019;3/29/2019;190329-АЛ-ОТ;3/29/2019;3/29/2019;3/27/2019;3/27/2019;3/25/2019;3/24/2019;190325-8К
20238;Главный бухгалтер;40;263;14114;3;4;3/29/2019;3/29/2019;190329-АМ-ОТ;3/29/2019;3/29/2019;3/27/2019;3/27/2019;3/25/2019;3/24/2019;190325-8К
20350;Мастер;40;263;12139;3;4;4/8/2019;4/8/2019;190402-АА-ОТ;4/8/2019;4/8/2019;4/5/2019;4/5/2019;4/2/2019;4/1/2019;190401-2К
13553;Директор;40;263;7421;3;4;4/12/2019;4/12/2019;190412-АА-ОТ;4/12/2019;4/12/2019;4/10/2019;4/10/2019;4/8/2019;4/7/2019;190212-9К
13553;Директор;40;263;7204;3;4;4/12/2019;4/12/2019;190412-АБ-ОТ;4/12/2019;4/12/2019;4/10/2019;4/10/2019;4/8/2019;4/7/2019;190227-3К
20239;Инженер по электронным сетям;40;263;14295;3;4;4/11/2019;4/11/2019;190411-АА-ОТ;4/11/2019;4/11/2019;4/8/2019;4/8/2019;4/5/2019;4/4/2019;190403-6К
20240;инженер электрик;40;263;14295;3;4;4/11/2019;4/11/2019;190411-АБ-ОТ;4/11/2019;4/11/2019;4/8/2019;4/8/2019;4/5/2019;4/4/2019;190403-6К
20241;Инженер КИПиА;40;263;14295;3;4;4/11/2019;4/11/2019;190411-АВ-ОТ;4/11/2019;4/11/2019;4/8/2019;4/8/2019;4/5/2019;4/4/2019;190403-6К
17143;Инженер по телекоммуникациям;40;263;14295;3;4;4/11/2019;4/11/2019;190411-АГ-ОТ;4/11/2019;4/11/2019;4/8/2019;4/8/2019;4/5/2019;4/4/2019;190403-6К
20242;Электромонтажник;40;263;14295;3;4;4/11/2019;4/11/2019;190411-АД-ОТ;4/11/2019;4/11/2019;4/8/2019;4/8/2019;4/5/2019;4/4/2019;190403-6К
20243;инженер КИПиА;40;263;14295;3;4;4/11/2019;4/11/2019;190411-АЖ-ОТ;4/11/2019;4/11/2019;4/8/2019;4/8/2019;4/5/2019;4/4/2019;190403-6К
9932;Технический директор;40;263;14295;3;4;4/11/2019;4/11/2019;190411-АЗ-ОТ;4/11/2019;4/11/2019;4/8/2019;4/8/2019;4/5/2019;4/4/2019;190403-6К
9931;Директор;40;263;14295;3;4;4/11/2019;4/11/2019;190411-АИ-ОТ;4/11/2019;4/11/2019;4/8/2019;4/8/2019;4/5/2019;4/4/2019;190403-6К
14286;директор;40;263;14285;3;4;4/12/2019;4/12/2019;190412-АВ-ОТ;4/12/2019;4/12/2019;4/10/2019;4/10/2019;4/8/2019;4/7/2019;190403-4К
20244;прораб;40;263;14285;3;4;4/12/2019;4/12/2019;190412-АГ-ОТ;4/12/2019;4/12/2019;4/10/2019;4/10/2019;4/8/2019;4/7/2019;190403-4К
16568;прораб;40;263;7609;3;4;4/17/2019;4/17/2019;190417-АА-ОТ;4/17/2019;4/17/2019;4/14/2019;4/14/2019;4/11/2019;4/10/2019;190409-1К
20245;Генеральный директор;40;263;3728;3;4;4/17/2019;4/17/2019;190417-АБ-ОТ;4/17/2019;4/17/2019;4/14/2019;4/14/2019;4/11/2019;4/10/2019;190409-5К
13879;Генеральный директор;40;263;13878;3;4;4/18/2019;4/18/2019;190418-АБ-ОТ;4/18/2019;4/18/2019;4/14/2019;4/14/2019;4/10/2019;4/9/2019;190314-4К
18068;Начальник участка;40;263;13880;3;4;4/18/2019;4/18/2019;190418-АВ-ОТ;4/18/2019;4/18/2019;4/14/2019;4/14/2019;4/10/2019;4/9/2019;190314-5К
20246;Производитель работ;40;263;13880;3;4;4/18/2019;4/18/2019;190418-АГ-ОТ;4/18/2019;4/18/2019;4/14/2019;4/14/2019;4/10/2019;4/9/2019;190314-5К
20247;Производитель работ;40;263;13880;3;4;4/18/2019;4/18/2019;190418-АД-ОТ;4/18/2019;4/18/2019;4/14/2019;4/14/2019;4/10/2019;4/9/2019;190314-5К
20248;Производитель работ;40;263;13880;3;4;4/18/2019;4/18/2019;190418-АЖ-ОТ;4/18/2019;4/18/2019;4/14/2019;4/14/2019;4/10/2019;4/9/2019;190314-5К
14354;Директор;40;263;14353;3;4;4/26/2019;4/26/2019;190426-АА-ОТ;4/26/2019;4/26/2019;4/24/2019;4/24/2019;4/22/2019;4/21/2019;7
20249;Руководитель проекта;40;263;4751;3;4;4/23/2019;4/23/2019;230423-АА-ОТ;4/23/2019;4/23/2019;4/20/2019;4/20/2019;4/17/2019;4/16/2019;190415-9К
20250;Производитель работ;40;263;4751;3;4;4/23/2019;4/23/2019;230423-АБ-ОТ;4/23/2019;4/23/2019;4/20/2019;4/20/2019;4/17/2019;4/16/2019;190415-9К
20251;Прораб;40;263;9916;3;4;4/29/2019;4/29/2019;190429-АА-ОТ;4/29/2019;4/29/2019;4/26/2019;4/26/2019;4/23/2019;4/22/2019;190417-4К
14024;Директор;40;263;14023;3;4;5/14/2019;5/14/2019;190514-АА-ОТ;5/14/2019;5/14/2019;5/10/2019;5/10/2019;5/6/2019;5/5/2019;190424-1К
14532;Индивидуальный предприниматель;40;263;14531;3;4;4/30/2019;4/30/2019;190430-АА-ОТ;4/30/2019;4/30/2019;4/27/2019;4/27/2019;4/24/2019;4/23/2019;190422-1К
14595;Генеральный директор;40;263;14594;3;4;4/29/2019;4/29/2019;190429-АБ-ОТ;4/29/2019;4/29/2019;4/26/2019;4/26/2019;4/23/2019;4/22/2019;190423-1К
14674;Нначальник участка;40;263;14594;3;4;4/29/2019;4/29/2019;190429-АВ-ОТ;4/29/2019;4/29/2019;4/26/2019;4/26/2019;4/23/2019;4/22/2019;190423-1К
14636;директор;40;263;14635;3;4;5/17/2019;5/17/2019;190517-АА-ОТ;5/17/2019;5/17/2019;5/15/2019;5/15/2019;5/13/2019;5/12/2019;190429-2К
14707;1 зам. ген. директора по производству;40;263;14660;3;4;5/7/2019;5/7/2019;190507-АА-ОТ;5/7/2019;5/7/2019;5/2/2019;5/2/2019;4/26/2019;4/25/2019;190415-13К
20252;Коммерческий директор;40;263;14594;3;4;5/15/2019;5/15/2019;190515-АА-ОТ;5/15/2019;5/15/2019;5/11/2019;5/11/2019;5/7/2019;5/6/2019;190506-4К
14749;Генеральный директор;40;263;14748;3;4;5/24/2019;5/24/2019;190524-АА-ОТ;5/24/2019;5/24/2019;5/22/2019;5/22/2019;5/20/2019;5/19/2019;190514-3К
14816;Генеральный директор;40;263;14815;3;4;5/24/2019;5/24/2019;190524-АД-ОТ;5/24/2019;5/24/2019;5/22/2019;5/22/2019;5/20/2019;5/19/2019;190429-8К
14902;Заместитель генерального директора по общим вопросам;40;263;14815;3;4;5/24/2019;5/24/2019;190524-АЕ-ОТ;5/24/2019;5/24/2019;5/22/2019;5/22/2019;5/20/2019;5/19/2019;190429-8К
7401;Заместитель генерального директора по безопасности;40;263;8602;3;4;5/27/2019;5/27/2019;190527-АА-ОТ;5/27/2019;5/27/2019;5/24/2019;5/24/2019;5/21/2019;5/20/2019;190515-5К
20253;Инженер-электрик;40;263;9784;3;4;5/27/2019;5/27/2019;190527-АБ-ОТ;5/27/2019;5/27/2019;5/24/2019;5/24/2019;5/21/2019;5/20/2019;190521-4К
7401;Руководитель службы оперативного контроля;40;263;8602;3;4;5/14/2019;5/14/2019;190514-АБ-ОТ;5/14/2019;5/14/2019;5/10/2019;5/10/2019;5/6/2019;5/5/2019;190515-5К
18543;Прораб;40;263;11768;3;4;6/3/2019;6/3/2019;190603-АА-ОТ;6/3/2019;6/3/2019;5/31/2019;5/31/2019;5/28/2019;5/27/2019;191022-4К
15009;Главный инженер;40;263;4732;3;4;6/11/2019;6/11/2019;190611-АА-ОТ;6/11/2019;6/11/2019;6/8/2019;6/8/2019;6/5/2019;6/4/2019;190527-3К
20254;Начальник дерево-обрабатывающего цеха;40;263;13881;3;4;6/3/2019;6/3/2019;190603-АБ-ОТ;6/3/2019;6/3/2019;5/31/2019;5/31/2019;5/28/2019;5/27/2019;190314-6К
20255;Начальник участка;40;263;9916;3;4;6/7/2019;6/7/2019;190607-АА-ОТ;6/7/2019;6/7/2019;6/5/2019;6/5/2019;6/3/2019;6/2/2019;190528-5К
20256;Прораб;40;263;9916;3;4;6/7/2019;6/7/2019;190607-АБ-ОТ;6/7/2019;6/7/2019;6/5/2019;6/5/2019;6/3/2019;6/2/2019;190528-5К
20257;Начальник участка;40;263;9916;3;4;6/7/2019;6/7/2019;190607-АВ-ОТ;6/7/2019;6/7/2019;6/5/2019;6/5/2019;6/3/2019;6/2/2019;190528-5К
20258;Прораб;40;263;9916;3;4;6/7/2019;6/7/2019;190607-АГ-ОТ;6/7/2019;6/7/2019;6/5/2019;6/5/2019;6/3/2019;6/2/2019;190528-5К
20259;Электромонтажник-бригадир;40;263;9784;3;4;6/5/2019;6/5/2019;190605-АА-ОТ;6/5/2019;6/5/2019;6/2/2019;6/2/2019;5/30/2019;5/29/2019;190527-8К
20260;Прораб;40;263;9784;3;4;6/5/2019;6/5/2019;190605-АБ-ОТ;6/5/2019;6/5/2019;6/2/2019;6/2/2019;5/30/2019;5/29/2019;190603-13К
20261;Директор;40;263;15018;3;4;6/19/2019;6/19/2019;190619-АА-ОТ;6/19/2019;6/19/2019;6/16/2019;6/16/2019;6/13/2019;6/12/2019;190603-5К
20262;Менеджер по ремонту и сервису СИ;40;263;11906;3;4;6/20/2019;6/20/2019;190620-АА-ОТ;6/20/2019;6/20/2019;6/17/2019;6/17/2019;6/14/2019;6/13/2019;190611-3К
4420;Генеральный директор;40;263;4419;3;4;7/5/2019;7/5/2019;190705-АА-ОТ;7/5/2019;7/5/2019;7/3/2019;7/3/2019;7/1/2019;6/30/2019;190701-2К
11565;Главный инженер;40;263;5890;3;4;7/4/2019;7/4/2019;ОТ-Э19/07-ЕБ6ФФ ;7/4/2019;7/4/2019;7/1/2019;7/1/2019;6/28/2019;6/27/2019;190625-3К
5891;Генеральный директор;40;263;5890;3;4;7/4/2019;7/4/2019;ОТ-Э19/07-ДC0CА ;7/4/2019;7/4/2019;7/1/2019;7/1/2019;6/28/2019;6/27/2019;190625-3К
11566;Главный конструктор-начальник ПКБ;40;263;5890;3;4;7/4/2019;7/4/2019;ОТ-Э19/07-07174 ;7/4/2019;7/4/2019;7/1/2019;7/1/2019;6/28/2019;6/27/2019;190625-3К
9658;Генеральный директор;40;263;9657;3;4;7/11/2019;7/11/2019;ОТ-Э19/07-5ДФ06 ;7/11/2019;7/11/2019;7/8/2019;7/8/2019;7/5/2019;7/4/2019;190625-1К
15841;Главный инженер;40;263;13513;3;4;7/19/2019;7/19/2019; ОТ-Э19/07-7Д291;7/19/2019;7/19/2019;7/17/2019;7/17/2019;7/15/2019;7/14/2019;190710-4К
6404;Генеральный директор;40;263;6403;3;4;8/20/2019;8/20/2019;241/1 - ОТ;8/20/2019;8/20/2019;8/18/2019;8/18/2019;8/15/2019;8/14/2019;190808-2К
16396;Директор;40;263;16395;3;4;8/29/2019;8/29/2019;ОТ-Э19/08-0293C ;8/29/2019;8/29/2019;8/26/2019;8/26/2019;8/23/2019;8/22/2019;190821-1К
14074;Заместитель директора по проектированию;40;263;9689;3;4;9/10/2019;9/10/2019;ОТ-Э19/09-C5Ф8Б ;9/10/2019;9/10/2019;9/7/2019;9/7/2019;9/4/2019;9/3/2019;190905-1К
16568;Начальник участка;40;263;12354;3;4;9/6/2019;9/6/2019;ОТ-Э19/09-Д6Д7Д ;9/6/2019;9/6/2019;9/4/2019;9/4/2019;9/2/2019;9/1/2019;190826-6К
14628;Заместитель генерального директора-главный инженер проектов;40;263;6094;3;4;9/6/2019;9/6/2019;ОТ-Э19/09-86CЕД ;9/6/2019;9/6/2019;9/4/2019;9/4/2019;9/2/2019;9/1/2019;190828-3К
16565;Генеральный директор;40;263;16564;3;4;9/13/2019;9/13/2019;ОТ-Э19/09-020Ф4 ;9/13/2019;9/13/2019;9/12/2019;9/12/2019;9/10/2019;9/9/2019;190904-1К
16570;Генеральный директор;40;263;16569;3;4;9/6/2019;9/6/2019;ОТ-Э19/09-78ФФФ ;9/6/2019;9/6/2019;9/4/2019;9/4/2019;9/2/2019;9/1/2019;190902-8К
16639;Генеральный директор;40;263;16638;3;4;9/18/2019;9/18/2019;ОТ-Э19/09-Е69ФА ;9/18/2019;9/18/2019;9/15/2019;9/15/2019;9/12/2019;9/11/2019;190909-3К
13364;Генеральный директор;40;263;13363;3;4;8/7/2019;8/7/2019;ОТ-Э19/08-8ДC0А ;8/7/2019;8/7/2019;8/4/2019;8/4/2019;8/1/2019;7/31/2019;190912-1К
13092;Технический директор;40;263;4711;3;4;9/20/2019;9/20/2019;ОТ-Э19/09-Д4949 ;9/20/2019;9/20/2019;9/18/2019;9/18/2019;9/16/2019;9/15/2019;190902-15К
4712;Генеральный директор;40;263;4711;3;4;9/20/2019;9/20/2019;ОТ-Э19/09-Ф114Д ;9/20/2019;9/20/2019;9/18/2019;9/18/2019;9/16/2019;9/15/2019;190902-15К
16757;Начальник ПТО;40;263;4711;3;4;9/20/2019;9/20/2019;ОТ-Э19/09-136Б0 ;9/20/2019;9/20/2019;9/18/2019;9/18/2019;9/16/2019;9/15/2019;190902-15К
16760;Инженер по эксплуатации;40;263;16239;3;4;9/20/2019;9/20/2019;ОТ-Э19/09-8Д31Ф ;9/20/2019;9/20/2019;9/18/2019;9/18/2019;9/16/2019;9/15/2019;190724-3К
1081;Директор;40;263;1080;3;4;9/24/2019;9/24/2019;ОТ-Э19/09-40Ф22 ;9/24/2019;9/24/2019;9/21/2019;9/21/2019;9/18/2019;9/17/2019;190918-1К
11368;Кадастровыйинженер;40;263;1080;3;4;9/24/2019;9/24/2019;ОТ-Э19/09-59Б6Б ;9/24/2019;9/24/2019;9/21/2019;9/21/2019;9/18/2019;9/17/2019;190918-1К
16943;Главный геолог;40;263;16851;3;4;9/24/2019;9/24/2019;ОТ-Э19/09-Д5Б64 ;9/24/2019;9/24/2019;9/21/2019;9/21/2019;9/18/2019;9/17/2019;190917-7К
16944;Главный инженер;40;263;16851;3;4;9/24/2019;9/24/2019;ОТ-Э19/09-ЕБЕА2 ;9/24/2019;9/24/2019;9/21/2019;9/21/2019;9/18/2019;9/17/2019;190917-7К
16945;Помощник руководителя;40;263;16851;3;4;9/24/2019;9/24/2019;ОТ-Э19/09-09944 ;9/24/2019;9/24/2019;9/21/2019;9/21/2019;9/18/2019;9/17/2019;190917-7К
16967;Производитель работ (прораб);40;263;16890;3;4;9/24/2019;9/24/2019;ОТ-Э19/09-748Б5 ;9/24/2019;9/24/2019;9/21/2019;9/21/2019;9/18/2019;9/17/2019;190918-8К
4470;Директор;40;263;4469;3;4;10/4/2019;10/4/2019;ОТ-Э19/10-6334Е ;10/4/2019;10/4/2019;10/2/2019;10/2/2019;9/30/2019;9/29/2019;190918-10К
17053;Инженер;40;263;663;3;4;10/9/2019;10/9/2019;ОТ-Э19/10-01834 ;10/9/2019;10/9/2019;10/6/2019;10/6/2019;10/3/2019;10/2/2019;191001-4К
17122;Директор;40;263;17121;3;4;10/21/2019;10/21/2019;ОТ-Э19/10-1БФА4 ;10/21/2019;10/21/2019;10/18/2019;10/18/2019;10/15/2019;10/14/2019;191010-1К
16713;Индивидуальный предприниматель;40;263;16712;3;4;10/21/2019;10/21/2019;ОТ-Э19/10-БC155 ;10/21/2019;10/21/2019;10/18/2019;10/18/2019;10/15/2019;10/14/2019;191001-1К
17198;Начальникучастка;40;263;17190;3;4;10/17/2019;10/17/2019;ОТ-Э19/10-8CФ93 ;10/17/2019;10/17/2019;10/14/2019;10/14/2019;10/11/2019;10/10/2019;191010-2К
17199;Производитель работ;40;263;17190;3;4;10/17/2019;10/17/2019;ОТ-Э19/10-9ФCФ3 ;10/17/2019;10/17/2019;10/14/2019;10/14/2019;10/11/2019;10/10/2019;191010-2К
16867;Ведущий инженер-дефектоскопист;40;263;10043;3;4;10/18/2019;10/18/2019;ОТ-Э19/10-Ф1943 ;10/18/2019;10/18/2019;10/16/2019;10/16/2019;10/14/2019;10/13/2019;191010-4К
1939;Инженер;40;263;18308;3;4;10/25/2019;10/25/2019;ОТ-Э19/10-C9CД5 ;10/25/2019;10/25/2019;10/23/2019;10/23/2019;10/21/2019;10/20/2019;191021-2К
18321;Начальник строительного участка;40;263;18052;3;4;10/22/2019;10/22/2019;ОТ-Э19/10-ЕДC89 ;10/22/2019;10/22/2019;10/19/2019;10/19/2019;10/16/2019;10/15/2019;191014-5К
17184;главный инженер;40;263;17183;3;4;11/12/2019;11/12/2019;ОТ-Э19/11-8009Б ;11/12/2019;11/12/2019;11/9/2019;11/9/2019;11/6/2019;11/5/2019;191023-1К
15943;Главный инженер;40;263;1233;3;4;11/15/2019;11/15/2019;ОТ-Э19/11-888C8 ;11/15/2019;11/15/2019;11/13/2019;11/13/2019;11/11/2019;11/10/2019;191111-2К
1483;Главный инженер проектов;40;263;942;3;4;11/11/2019;11/11/2019;ОТ-Э19/11-1ЕФ56 ;11/11/2019;11/11/2019;11/8/2019;11/8/2019;11/5/2019;11/4/2019;191028-13К
12840;Инженер;40;263;12462;3;4;11/27/2019;11/27/2019;ОТ-Э19/11-94ДФ2 ;11/27/2019;11/27/2019;11/24/2019;11/24/2019;11/21/2019;11/20/2019;191010-5К
19027;Руководитель отдела информационных технологий;40;263;942;3;4;12/6/2019;12/6/2019;ОТ-Э19/12-62Д44 ;12/6/2019;12/6/2019;12/4/2019;12/4/2019;12/2/2019;12/1/2019;191125-5К
18566;Главный врач;40;263;18565;3;4;12/13/2019;12/13/2019;ОТ-Э19/12-084ДБ ;12/13/2019;12/13/2019;12/11/2019;12/11/2019;12/9/2019;12/8/2019;191111-3К
8603;Генеральный директор;40;263;8602;3;4;12/18/2019;12/18/2019;ОТ-Э19/12-4Б817 ;12/18/2019;12/18/2019;12/15/2019;12/15/2019;12/12/2019;12/11/2019;191209-2К
8594;Генеральный директор;40;263;8593;3;4;12/18/2019;12/18/2019;ОТ-Э19/12-13963 ;12/18/2019;12/18/2019;12/15/2019;12/15/2019;12/12/2019;12/11/2019;191209-1К
11356;Генеральный директор;40;263;11355;3;4;12/17/2019;12/17/2019;ОТ-Э19/12-ДА085 ;12/17/2019;12/17/2019;12/14/2019;12/14/2019;12/11/2019;12/10/2019;191112-1К
19285;Заместитель генерального директора;40;263;11355;3;4;12/17/2019;12/17/2019;ОТ-Э19/12-ЕАД86 ;12/17/2019;12/17/2019;12/14/2019;12/14/2019;12/11/2019;12/10/2019;191112-1К
12676;Охранник 4 разряда;41;264;10370;3;5;1/31/2019;1/31/2019;0131-АА/ПБ;1/31/2019;1/31/2019;1/30/2019;1/30/2019;1/28/2019;1/27/2019;190121-1К
12677;Охранник 4 разряда;41;264;10370;3;5;1/31/2019;1/31/2019;0131-АБ/ПБ;1/31/2019;1/31/2019;1/30/2019;1/30/2019;1/28/2019;1/27/2019;190121-1К
10381;Старший смены;41;264;10370;3;5;1/31/2019;1/31/2019;0131-АВ/ПБ;1/31/2019;1/31/2019;1/30/2019;1/30/2019;1/28/2019;1/27/2019;190121-1К
12680;Охранник 4 разряда;41;264;10370;3;5;1/31/2019;1/31/2019;0131-АГ/ПБ;1/31/2019;1/31/2019;1/30/2019;1/30/2019;1/28/2019;1/27/2019;190121-1К
10371;Генеральный директор;41;264;10370;3;5;1/31/2019;1/31/2019;0131-АД/ПБ;1/31/2019;1/31/2019;1/30/2019;1/30/2019;1/28/2019;1/27/2019;190121-1К
11577;Охранник 4 разряда;41;264;10370;3;5;1/31/2019;1/31/2019;0131-АЕ/ПБ;1/31/2019;1/31/2019;1/30/2019;1/30/2019;1/28/2019;1/27/2019;190121-1К
11579;Охранник 4 разряда;41;264;10370;3;5;1/31/2019;1/31/2019;0131-АЖ/ПБ;1/31/2019;1/31/2019;1/30/2019;1/30/2019;1/28/2019;1/27/2019;190121-1К
11580;Старший смены;41;264;10370;3;5;1/31/2019;1/31/2019;0131-АЗ/ПБ;1/31/2019;1/31/2019;1/30/2019;1/30/2019;1/28/2019;1/27/2019;190121-1К
10383;Старший охраны объекта;41;264;10370;3;5;1/31/2019;1/31/2019;0131-АИ/ПБ;1/31/2019;1/31/2019;1/30/2019;1/30/2019;1/28/2019;1/27/2019;190121-1К
10379;Старший смены;41;264;10370;3;5;1/31/2019;1/31/2019;0131-АК/ПБ;1/31/2019;1/31/2019;1/30/2019;1/30/2019;1/28/2019;1/27/2019;190121-1К
11582;Старший смены;41;264;10370;3;5;1/31/2019;1/31/2019;0131-АЛ/ПБ;1/31/2019;1/31/2019;1/30/2019;1/30/2019;1/28/2019;1/27/2019;190121-1К
12683;Охранник 4 разряда;41;264;10370;3;5;1/31/2019;1/31/2019;0131-АМ/ПБ;1/31/2019;1/31/2019;1/30/2019;1/30/2019;1/28/2019;1/27/2019;190121-1К
20263;Охранник 4 разряда;41;264;10370;3;5;1/31/2019;1/31/2019;0131-АН/ПБ;1/31/2019;1/31/2019;1/30/2019;1/30/2019;1/28/2019;1/27/2019;190121-1К
11585;Охранник 6 разряда;41;264;10370;3;5;1/31/2019;1/31/2019;0131-АО/ПБ;1/31/2019;1/31/2019;1/30/2019;1/30/2019;1/28/2019;1/27/2019;190121-1К
11586;Охранник 4 разряда;41;264;10370;3;5;1/31/2019;1/31/2019;0131-АП/ПБ;1/31/2019;1/31/2019;1/30/2019;1/30/2019;1/28/2019;1/27/2019;190121-1К
11587;Охранник 4 разряда;41;264;10370;3;5;1/31/2019;1/31/2019;0131-АР/ПБ;1/31/2019;1/31/2019;1/30/2019;1/30/2019;1/28/2019;1/27/2019;190121-1К
11588;Старший охраны объекта;41;264;10370;3;5;1/31/2019;1/31/2019;0131-АС/ПБ;1/31/2019;1/31/2019;1/30/2019;1/30/2019;1/28/2019;1/27/2019;190121-1К
12687;Охранник 6 разряда;41;264;10370;3;5;1/31/2019;1/31/2019;0131-АТ/ПБ;1/31/2019;1/31/2019;1/30/2019;1/30/2019;1/28/2019;1/27/2019;190121-1К
12688;Охранник 4 разряда;41;264;10370;3;5;1/31/2019;1/31/2019;0131-АУ/ПБ;1/31/2019;1/31/2019;1/30/2019;1/30/2019;1/28/2019;1/27/2019;190121-1К
11589;Старший охраны объекта;41;264;10370;3;5;1/31/2019;1/31/2019;0131-АФ/ПБ;1/31/2019;1/31/2019;1/30/2019;1/30/2019;1/28/2019;1/27/2019;190121-1К
11592;Охранник 4 разряда;41;264;10370;3;5;1/31/2019;1/31/2019;0131-АХ/ПБ;1/31/2019;1/31/2019;1/30/2019;1/30/2019;1/28/2019;1/27/2019;190121-1К
11594;Заместитель генерального директора - начальник отдела охраны объектов;41;264;10370;3;5;1/31/2019;1/31/2019;0131-АЦ/ПБ;1/31/2019;1/31/2019;1/30/2019;1/30/2019;1/28/2019;1/27/2019;190121-1К
11595;Охранник 4 разряда;41;264;10370;3;5;1/31/2019;1/31/2019;0131-АЧ/ПБ;1/31/2019;1/31/2019;1/30/2019;1/30/2019;1/28/2019;1/27/2019;190121-1К
10380;Старший охраны объекта;41;264;10370;3;5;1/31/2019;1/31/2019;0131-АШ/ПБ;1/31/2019;1/31/2019;1/30/2019;1/30/2019;1/28/2019;1/27/2019;190121-1К
11596;Охранник 4 разряда;41;264;10370;3;5;1/31/2019;1/31/2019;0131-АЩ/ПБ;1/31/2019;1/31/2019;1/30/2019;1/30/2019;1/28/2019;1/27/2019;190121-1К
11600;Старший охраны объекта;41;264;10370;3;5;1/31/2019;1/31/2019;0131-АЭ/ПБ;1/31/2019;1/31/2019;1/30/2019;1/30/2019;1/28/2019;1/27/2019;190121-1К
10382;Охранник 4 разряда;41;264;10370;3;5;1/31/2019;1/31/2019;0131-АЮ/ПБ;1/31/2019;1/31/2019;1/30/2019;1/30/2019;1/28/2019;1/27/2019;190121-1К
11604;Охранник 4 разряда;41;264;10370;3;5;1/31/2019;1/31/2019;0131-АЯ/ПБ;1/31/2019;1/31/2019;1/30/2019;1/30/2019;1/28/2019;1/27/2019;190121-1К
11606;Охранник 4 разряда;41;264;10370;3;5;1/31/2019;1/31/2019;0131-БА/ПБ;1/31/2019;1/31/2019;1/30/2019;1/30/2019;1/28/2019;1/27/2019;190121-1К
11607;Охранник 4 разряда;41;264;10370;3;5;1/31/2019;1/31/2019;0131-ББ/ПБ;1/31/2019;1/31/2019;1/30/2019;1/30/2019;1/28/2019;1/27/2019;190121-1К
11610;Старший смены;41;264;10370;3;5;1/31/2019;1/31/2019;0131-БВ/ПБ;1/31/2019;1/31/2019;1/30/2019;1/30/2019;1/28/2019;1/27/2019;190121-1К
11617;Охранник 4 разряда;41;264;10370;3;5;1/31/2019;1/31/2019;0131-БГ/ПБ;1/31/2019;1/31/2019;1/30/2019;1/30/2019;1/28/2019;1/27/2019;190121-1К
11618;Старший смены;41;264;10370;3;5;1/31/2019;1/31/2019;0131-БД/ПБ;1/31/2019;1/31/2019;1/30/2019;1/30/2019;1/28/2019;1/27/2019;190121-1К
11619;Охранник 4 разряда;41;264;10370;3;5;1/31/2019;1/31/2019;0131-БЕ/ПБ;1/31/2019;1/31/2019;1/30/2019;1/30/2019;1/28/2019;1/27/2019;190121-1К
20264;Монтер пути;41;684;4629;3;5;2/4/2019;2/4/2019;0104-АА/ПБ;2/4/2019;2/4/2019;2/3/2019;2/3/2019;2/1/2019;1/31/2019;190123-2К
20265;Монтер пути;41;684;4629;3;5;2/4/2019;2/4/2019;0104-АБ/ПБ;2/4/2019;2/4/2019;2/3/2019;2/3/2019;2/1/2019;1/31/2019;190123-2К
8579;Индивидуальный предприниматель;41;264;7742;3;5;2/4/2019;2/4/2019;0104-АВ/ПБ;2/4/2019;2/4/2019;2/2/2019;2/2/2019;1/30/2019;1/29/2019;190117-3К
7743;Индивидуальный предприниматель;41;264;7742;3;5;2/4/2019;2/4/2019;0104-АГ/ПБ;2/4/2019;2/4/2019;2/2/2019;2/2/2019;1/30/2019;1/29/2019;190117-3К
12898;Директор;41;264;12897;3;5;11/23/2018;11/23/2018;1123-АД/ПБ;11/23/2018;11/23/2018;11/21/2018;11/21/2018;11/19/2018;11/18/2018;190128-2К
12940;Индивидуальныйпредприниматель;41;264;12939;3;5;2/7/2019;2/7/2019;0207-АА/ПБ;2/7/2019;2/7/2019;2/6/2019;2/6/2019;2/4/2019;2/3/2019;190128-3К
13000;Генеральный директор;41;264;12999;3;5;2/13/2019;2/13/2019;0213-АД/ПБ;2/13/2019;2/13/2019;2/11/2019;2/11/2019;2/8/2019;2/7/2019;190128-5К
3797;Генеральный директор;41;264;3796;3;5;2/13/2019;2/13/2019;0213-АЖ/ПБ;2/13/2019;2/13/2019;2/11/2019;2/11/2019;2/8/2019;2/7/2019;190128-4К
20266;Начальник ПТО;41;264;3796;3;5;2/13/2019;2/13/2019;0213-АЗ/ПБ;2/13/2019;2/13/2019;2/11/2019;2/11/2019;2/8/2019;2/7/2019;190128-4К
20267;Охранник 4 разряда;41;264;7640;3;5;2/14/2019;2/14/2019;190214-АБ/ПБ;2/14/2019;2/14/2019;2/13/2019;2/13/2019;2/11/2019;2/10/2019;190121-4К
20268;Охранник 4 разряда;41;264;7640;3;5;2/14/2019;2/14/2019;190214-АВ/ПБ;2/14/2019;2/14/2019;2/13/2019;2/13/2019;2/11/2019;2/10/2019;190121-4К
20269;Охранник 4 разряда;41;264;7640;3;5;2/14/2019;2/14/2019;190214-АГ/ПБ;2/14/2019;2/14/2019;2/13/2019;2/13/2019;2/11/2019;2/10/2019;190121-4К
20270;Охранник 4 разряда;41;264;7640;3;5;2/14/2019;2/14/2019;190214-АД/ПБ;2/14/2019;2/14/2019;2/13/2019;2/13/2019;2/11/2019;2/10/2019;190121-4К
20271;Охранник 4 разряда;41;264;7640;3;5;2/14/2019;2/14/2019;190214-АЖ/ПБ;2/14/2019;2/14/2019;2/13/2019;2/13/2019;2/11/2019;2/10/2019;190121-4К
20272;Охранник 4 разряда;41;264;7640;3;5;2/14/2019;2/14/2019;190214-АЗ/ПБ;2/14/2019;2/14/2019;2/13/2019;2/13/2019;2/11/2019;2/10/2019;190121-4К
20273;Охранник 4 разряда;41;264;7640;3;5;2/14/2019;2/14/2019;190214-АИ/ПБ;2/14/2019;2/14/2019;2/13/2019;2/13/2019;2/11/2019;2/10/2019;190121-4К
20274;Начальник охраны объекта;41;264;7640;3;5;2/14/2019;2/14/2019;190214-АК/ПБ;2/14/2019;2/14/2019;2/13/2019;2/13/2019;2/11/2019;2/10/2019;190121-4К
20275;Охранник 4 разряда;41;264;7640;3;5;2/14/2019;2/14/2019;190214-АЛ/ПБ;2/14/2019;2/14/2019;2/13/2019;2/13/2019;2/11/2019;2/10/2019;190121-4К
20276;Охранник4 разряда;41;264;7640;3;5;2/14/2019;2/14/2019;190214-АМ/ПБ;2/14/2019;2/14/2019;2/13/2019;2/13/2019;2/11/2019;2/10/2019;190121-4К
20277;Генеральный директор;41;264;7640;3;5;2/14/2019;2/14/2019;190214-АН/ПБ;2/14/2019;2/14/2019;2/13/2019;2/13/2019;2/11/2019;2/10/2019;190121-4К
20278;Охранник 4 разряда;41;264;7640;3;5;2/14/2019;2/14/2019;190214-АО/ПБ;2/14/2019;2/14/2019;2/13/2019;2/13/2019;2/11/2019;2/10/2019;190121-4К
20279;Охранник 4 разряда;41;264;7640;3;5;2/14/2019;2/14/2019;190214-АП/ПБ;2/14/2019;2/14/2019;2/13/2019;2/13/2019;2/11/2019;2/10/2019;190121-4К
20280;Охранник 4 разряда;41;264;7640;3;5;2/14/2019;2/14/2019;190214-АР/ПБ;2/14/2019;2/14/2019;2/13/2019;2/13/2019;2/11/2019;2/10/2019;190121-4К
20281;Охранник 4 разряда;41;264;7640;3;5;2/14/2019;2/14/2019;190214-АС/ПБ;2/14/2019;2/14/2019;2/13/2019;2/13/2019;2/11/2019;2/10/2019;190121-4К
20282;Старший смены;41;264;7640;3;5;2/14/2019;2/14/2019;190214-АТ/ПБ;2/14/2019;2/14/2019;2/13/2019;2/13/2019;2/11/2019;2/10/2019;190121-4К
20283;Охранник 4 разряда;41;264;7640;3;5;2/14/2019;2/14/2019;190214-АУ/ПБ;2/14/2019;2/14/2019;2/13/2019;2/13/2019;2/11/2019;2/10/2019;190121-4К
20284;Охранник 4 разряда;41;264;7640;3;5;2/14/2019;2/14/2019;190214-АФ/ПБ;2/14/2019;2/14/2019;2/13/2019;2/13/2019;2/11/2019;2/10/2019;190121-4К
20285;Охранник 4 разряда;41;264;7640;3;5;2/14/2019;2/14/2019;190214-БА/ПБ;2/14/2019;2/14/2019;2/13/2019;2/13/2019;2/11/2019;2/10/2019;190121-4К
20286;Начальник охраны объекта;41;264;7640;3;5;2/14/2019;2/14/2019;190214-ББ/ПБ;2/14/2019;2/14/2019;2/13/2019;2/13/2019;2/11/2019;2/10/2019;190121-4К
20287;Заместитель генерального директора-начальник охраны объектов;41;264;7640;3;5;2/14/2019;2/14/2019;190214-БВ/ПБ;2/14/2019;2/14/2019;2/13/2019;2/13/2019;2/11/2019;2/10/2019;190121-4К
20288;Охранник 4 разряда;41;264;7640;3;5;2/14/2019;2/14/2019;190214-БГ/ПБ;2/14/2019;2/14/2019;2/13/2019;2/13/2019;2/11/2019;2/10/2019;190121-4К
20289;Охранник 4 разряда;41;264;7640;3;5;2/14/2019;2/14/2019;190214-БД/ПБ;2/14/2019;2/14/2019;2/13/2019;2/13/2019;2/11/2019;2/10/2019;190121-4К
20290;Начальник охраны объекта;41;264;7640;3;5;2/14/2019;2/14/2019;190214-БЖ/ПБ;2/14/2019;2/14/2019;2/13/2019;2/13/2019;2/11/2019;2/10/2019;190121-4К
20291;Охранник 4 разряда;41;264;7640;3;5;2/14/2019;2/14/2019;190214-БЗ/ПБ;2/14/2019;2/14/2019;2/13/2019;2/13/2019;2/11/2019;2/10/2019;190121-4К
20292;Охранник 4 разряда;41;264;7640;3;5;2/14/2019;2/14/2019;190214-БИ/ПБ;2/14/2019;2/14/2019;2/13/2019;2/13/2019;2/11/2019;2/10/2019;190121-4К
20293;Охранник 4 разряда;41;264;7640;3;5;2/14/2019;2/14/2019;190214-БК/ПБ;2/14/2019;2/14/2019;2/13/2019;2/13/2019;2/11/2019;2/10/2019;190121-4К
20294;Охранник 4 разряда;41;264;7640;3;5;2/14/2019;2/14/2019;190214-БЛ/ПБ;2/14/2019;2/14/2019;2/13/2019;2/13/2019;2/11/2019;2/10/2019;190121-4К
12596;Генеральный директор;41;264;12595;3;5;2/14/2019;2/14/2019;190214-АА/ПБ;2/14/2019;2/14/2019;2/13/2019;2/13/2019;2/11/2019;2/10/2019;190114-5К
13137;Начальник производства;41;264;13105;3;5;2/15/2019;2/15/2019;190215-АА/ПБ;2/15/2019;2/15/2019;2/14/2019;2/14/2019;2/12/2019;2/11/2019;190201-3К
12710;Директор;41;264;12709;3;5;2/11/2019;2/11/2019;190211-АА/ПБ;2/11/2019;2/11/2019;2/9/2019;2/9/2019;2/6/2019;2/5/2019;190130-2К
13128;Генеральный директор;41;264;13127;3;5;2/21/2019;2/21/2019;190221-АБ/ПБ;2/21/2019;2/21/2019;2/20/2019;2/20/2019;2/18/2019;2/17/2019;190207-5К
13231;Директор;41;264;13230;3;5;2/22/2019;2/22/2019;190222-АА/ПБ;2/22/2019;2/22/2019;2/21/2019;2/21/2019;2/19/2019;2/18/2019;190205-4К
20206;Начальник участка ПНР;41;264;13230;3;5;2/22/2019;2/22/2019;190222-АА/ПБ;2/22/2019;2/22/2019;2/21/2019;2/21/2019;2/19/2019;2/18/2019;190205-4К
13051;Директор;41;264;13050;3;5;2/26/2019;2/26/2019;190226-АА/ПБ;2/26/2019;2/26/2019;2/24/2019;2/24/2019;2/21/2019;2/20/2019;14-ГЗ/2019
20215;Главный инженер;41;264;9784;3;5;2/28/2019;2/28/2019;190228-АВ/ПБ;2/28/2019;2/28/2019;2/27/2019;2/27/2019;2/25/2019;2/24/2019;190218-5К
20218;Начальник производства;41;264;13440;3;5;2/28/2019;2/28/2019;190228-АК/ПБ;2/28/2019;2/28/2019;2/27/2019;2/27/2019;2/25/2019;2/24/2019;190218-8К
18555;Заместитель директора по строительству;41;264;13440;3;5;2/28/2019;2/28/2019;190228-АЛ/ПБ;2/28/2019;2/28/2019;2/27/2019;2/27/2019;2/25/2019;2/24/2019;190218-8К
18559;Главный технолог;41;264;13440;3;5;2/28/2019;2/28/2019;190228-АМ/ПБ;2/28/2019;2/28/2019;2/27/2019;2/27/2019;2/25/2019;2/24/2019;190218-8К
16926;Главный инженер;41;264;9916;3;5;2/28/2019;2/28/2019;190228-АО/ПБ;2/28/2019;2/28/2019;2/27/2019;2/27/2019;2/25/2019;2/24/2019;190218-4К
18269;Дорожный мастер;41;264;4629;3;5;2/28/2019;2/28/2019;190228-АП/ПБ;2/28/2019;2/28/2019;2/27/2019;2/27/2019;2/25/2019;2/24/2019;190225-1К
18182;Бригадир пути;41;264;4629;3;5;2/28/2019;2/28/2019;190228-АР/ПБ;2/28/2019;2/28/2019;2/27/2019;2/27/2019;2/25/2019;2/24/2019;190225-1К
18151;Заместитель генерального директора по строительству;41;264;4629;3;5;2/28/2019;2/28/2019;190228-АС/ПБ;2/28/2019;2/28/2019;2/27/2019;2/27/2019;2/25/2019;2/24/2019;190225-1К
20219;производитель работ;41;264;13513;3;5;3/11/2019;3/11/2019;190311-АБ/ПБ;3/11/2019;3/11/2019;3/9/2019;3/9/2019;3/6/2019;3/5/2019;190221-6К
13092;Генеральный директор;41;264;13091;3;5;3/11/2019;3/11/2019;190311-АА/ПБ;3/11/2019;3/11/2019;3/9/2019;3/9/2019;3/6/2019;3/5/2019;190115-3К
13564;Начальник ПТО;41;264;13091;3;5;3/11/2019;3/11/2019;190311-АВ/ПБ;3/11/2019;3/11/2019;3/9/2019;3/9/2019;3/6/2019;3/5/2019;190115-3К
13471;Индивидуальный предприниматель;41;264;13470;3;5;3/11/2019;3/11/2019;190311-АД/ПБ;3/11/2019;3/11/2019;3/9/2019;3/9/2019;3/6/2019;3/5/2019;190220-4К
20299;Менеджер;41;264;13476;3;5;3/12/2019;3/12/2019;190312-АБ/ПБ;3/12/2019;3/12/2019;3/9/2019;3/9/2019;3/6/2019;3/5/2019;190226-2К
20220;Специалист по монтажу и ремонту систем противопожарной защиты;41;264;7435;3;5;3/14/2019;3/14/2019;190314-АБ/ПБ;3/14/2019;3/14/2019;3/13/2019;3/13/2019;3/11/2019;3/10/2019;190211-22К
20301;Генеральный директор;41;264;10451;3;5;3/13/2019;3/13/2019;190313-АЗ/ПБ;3/13/2019;3/13/2019;3/10/2019;3/10/2019;3/7/2019;3/6/2019;190116-4К
20302;Технический директор;41;264;10451;3;5;3/13/2019;3/13/2019;190313-АИ/ПБ;3/13/2019;3/13/2019;3/10/2019;3/10/2019;3/7/2019;3/6/2019;190116-4К
20303;Заместитель техническо-го директора;41;264;10451;3;5;3/13/2019;3/13/2019;190313-АК/ПБ;3/13/2019;3/13/2019;3/10/2019;3/10/2019;3/7/2019;3/6/2019;190116-4К
20304;Начальник производства;41;264;13783;3;5;3/21/2019;3/21/2019;190321-АА/ПБ;3/21/2019;3/21/2019;3/20/2019;3/20/2019;3/18/2019;3/17/2019;190312-4К
20221;Главный инженер;41;264;13815;3;5;3/26/2019;3/26/2019;190326-АА/ПБ;3/26/2019;3/26/2019;3/24/2019;3/24/2019;3/21/2019;3/20/2019;190311-8К
20222;Начальник участка ГНБ;41;264;13815;3;5;3/26/2019;3/26/2019;190326-АБ/ПБ;3/26/2019;3/26/2019;3/24/2019;3/24/2019;3/21/2019;3/20/2019;190311-8К
20223;Директор;41;264;13870;3;5;3/27/2019;3/27/2019;190327-АА/ПБ;3/27/2019;3/27/2019;3/25/2019;3/25/2019;3/22/2019;3/21/2019;190314-2К
20224;Технический директор;41;264;13870;3;5;3/27/2019;3/27/2019;190327-АБ/ПБ;3/27/2019;3/27/2019;3/25/2019;3/25/2019;3/22/2019;3/21/2019;190314-2К
13636;Руководитель группы проектно-конструкторского отдела;41;264;13908;3;5;3/28/2019;3/28/2019;190328-АА/ПБ;3/28/2019;3/28/2019;3/27/2019;3/27/2019;3/25/2019;3/24/2019;190314-11К
13637;Заместитель генерального директора;41;264;13908;3;5;3/28/2019;3/28/2019;190328-АБ/ПБ;3/28/2019;3/28/2019;3/27/2019;3/27/2019;3/25/2019;3/24/2019;190314-11К
13639;Начальник отдела обследований и экспертизы зданий и сооружений;41;264;13908;3;5;3/28/2019;3/28/2019;190328-АВ/ПБ;3/28/2019;3/28/2019;3/27/2019;3/27/2019;3/25/2019;3/24/2019;190314-11К
20225;Генеральный директор;41;264;6187;3;5;3/28/2019;3/28/2019;190328-АГ/ПБ;3/28/2019;3/28/2019;3/27/2019;3/27/2019;3/25/2019;3/24/2019;190312-5К
20226;Главный специалист;41;264;6187;3;5;3/28/2019;3/28/2019;190328-АД/ПБ;3/28/2019;3/28/2019;3/27/2019;3/27/2019;3/25/2019;3/24/2019;190312-5К
18283;Главный специалист;41;264;6187;3;5;3/28/2019;3/28/2019;190328-АЖ/ПБ;3/28/2019;3/28/2019;3/27/2019;3/27/2019;3/25/2019;3/24/2019;190312-5К
20365;Инженер;41;264;14027;3;5;3/29/2019;3/29/2019;190329-АМ/ПБ;3/29/2019;3/29/2019;3/28/2019;3/28/2019;3/26/2019;3/25/2019;190318-14К
19960;Руководитель проектов;41;264;3798;3;5;3/29/2019;3/29/2019;190329-АС/ПБ;3/29/2019;3/29/2019;3/28/2019;3/28/2019;3/26/2019;3/25/2019;190318-9К
20228;Начальник участка;41;264;14025;3;5;3/29/2019;3/29/2019;190329-АУ/ПБ;3/29/2019;3/29/2019;3/28/2019;3/28/2019;3/26/2019;3/25/2019;190318-13К
14030;Генеральный директор;41;264;14029;3;5;3/28/2019;3/28/2019;190328-АК/ПБ;3/28/2019;3/28/2019;3/27/2019;3/27/2019;3/25/2019;3/24/2019;190320-3К
46;Директор;41;264;13873;3;5;3/28/2019;3/28/2019;190328-АМ/ПБ;3/28/2019;3/28/2019;3/27/2019;3/27/2019;3/25/2019;3/24/2019;190314-3К
20229;Главный инженер;41;264;13873;3;5;3/28/2019;3/28/2019;190328-АН/ПБ;3/28/2019;3/28/2019;3/27/2019;3/27/2019;3/25/2019;3/24/2019;190314-3К
20230;Главный энергетик;41;264;13873;3;5;3/28/2019;3/28/2019;190328-АО/ПБ;3/28/2019;3/28/2019;3/27/2019;3/27/2019;3/25/2019;3/24/2019;190314-3К
973;Директор;41;264;13881;3;5;4/10/2019;4/10/2019;190410-АА/ПБ;4/10/2019;4/10/2019;4/8/2019;4/8/2019;4/5/2019;4/4/2019;190314-6К
20229;Главный инженер;41;264;13881;3;5;4/10/2019;4/10/2019;190410-АБ/ПБ;4/10/2019;4/10/2019;4/8/2019;4/8/2019;4/5/2019;4/4/2019;190314-6К
20230;Главный энергетик;41;264;13881;3;5;4/10/2019;4/10/2019;190410-АВ/ПБ;4/10/2019;4/10/2019;4/8/2019;4/8/2019;4/5/2019;4/4/2019;190314-6К
20233;Главный механик;41;264;13881;3;5;4/10/2019;4/10/2019;190410-АГ/ПБ;4/10/2019;4/10/2019;4/8/2019;4/8/2019;4/5/2019;4/4/2019;190314-6К
4251;Начальник БСУ;41;264;13881;3;5;4/10/2019;4/10/2019;190410-АД/ПБ;4/10/2019;4/10/2019;4/8/2019;4/8/2019;4/5/2019;4/4/2019;190314-6К
20234;Начальник цеха ПВХ;41;264;13881;3;5;4/10/2019;4/10/2019;190410-АЖ/ПБ;4/10/2019;4/10/2019;4/8/2019;4/8/2019;4/5/2019;4/4/2019;190314-6К
20235;Начальник цеха столярных изделий;41;264;13881;3;5;4/10/2019;4/10/2019;190410-АЗ/ПБ;4/10/2019;4/10/2019;4/8/2019;4/8/2019;4/5/2019;4/4/2019;190314-6К
20236;Технический директор;41;264;14114;3;5;4/4/2019;4/4/2019;190404-АА/ПБ;4/4/2019;4/4/2019;4/3/2019;4/3/2019;4/1/2019;3/31/2019;190325-8К
20237;Главный технолог;41;264;14114;3;5;4/4/2019;4/4/2019;190404-АБ/ПБ;4/4/2019;4/4/2019;4/3/2019;4/3/2019;4/1/2019;3/31/2019;190325-8К
14115;Генеральный директор;41;264;14114;3;5;4/4/2019;4/4/2019;190404-АВ/ПБ;4/4/2019;4/4/2019;4/3/2019;4/3/2019;4/1/2019;3/31/2019;190325-8К
20238;Главный бухгалтер;41;264;14114;3;5;4/4/2019;4/4/2019;190404-АГ/ПБ;4/4/2019;4/4/2019;4/3/2019;4/3/2019;4/1/2019;3/31/2019;190325-8К
20350;Мастер;41;264;12139;3;5;4/12/2019;4/12/2019;190412-АА/ПБ;4/12/2019;4/12/2019;4/11/2019;4/11/2019;4/9/2019;4/8/2019;190401-2К
13553;Директор;41;264;7421;3;5;4/18/2019;4/18/2019;190418-АА/ПБ;4/18/2019;4/18/2019;4/17/2019;4/17/2019;4/15/2019;4/14/2019;190212-9К
13553;Директор;41;264;7204;3;5;4/18/2019;4/18/2019;190418-АБ/ПБ;4/18/2019;4/18/2019;4/17/2019;4/17/2019;4/15/2019;4/14/2019;190227-3К
9022;Ведущий технолог;41;264;6189;3;5;4/18/2019;4/18/2019;190418-АВ/ПБ;4/18/2019;4/18/2019;4/17/2019;4/17/2019;4/15/2019;4/14/2019;190408-3К
9298;Главный технолог;41;264;6189;3;5;4/18/2019;4/18/2019;190418-АГ/ПБ;4/18/2019;4/18/2019;4/17/2019;4/17/2019;4/15/2019;4/14/2019;190408-3К
9272;Технолог;41;264;6189;3;5;4/18/2019;4/18/2019;190418-АД/ПБ;4/18/2019;4/18/2019;4/17/2019;4/17/2019;4/15/2019;4/14/2019;190408-3К
20239;Инженер по электронным сетям;41;264;14295;3;5;4/17/2019;4/17/2019;190417-АА/ПБ;4/17/2019;4/17/2019;4/15/2019;4/15/2019;4/12/2019;4/11/2019;190403-6К
20240;инженер электрик;41;264;14295;3;5;4/17/2019;4/17/2019;190417-АИ/ПБ;4/17/2019;4/17/2019;4/15/2019;4/15/2019;4/12/2019;4/11/2019;190403-6К
20241;Инженер КИПиА;41;264;14295;3;5;4/17/2019;4/17/2019;190417-АБ/ПБ;4/17/2019;4/17/2019;4/15/2019;4/15/2019;4/12/2019;4/11/2019;190403-6К
17143;Инженер по телекоммуникациям;41;264;14295;3;5;4/17/2019;4/17/2019;190417-АВ/ПБ;4/17/2019;4/17/2019;4/15/2019;4/15/2019;4/12/2019;4/11/2019;190403-6К
20242;Электромонтажник;41;264;14295;3;5;4/17/2019;4/17/2019;190417-АГ/ПБ;4/17/2019;4/17/2019;4/15/2019;4/15/2019;4/12/2019;4/11/2019;190403-6К
20243;инженер КИПиА;41;264;14295;3;5;4/17/2019;4/17/2019;190417-АД/ПБ;4/17/2019;4/17/2019;4/15/2019;4/15/2019;4/12/2019;4/11/2019;190403-6К
9932;Технический директор;41;264;14295;3;5;4/17/2019;4/17/2019;190417-АЖ/ПБ;4/17/2019;4/17/2019;4/15/2019;4/15/2019;4/12/2019;4/11/2019;190403-6К
9931;Директор;41;264;14295;3;5;4/17/2019;4/17/2019;190417-АЗ/ПБ;4/17/2019;4/17/2019;4/15/2019;4/15/2019;4/12/2019;4/11/2019;190403-6К
14286;директор;41;264;14285;3;5;4/18/2019;4/18/2019;190418-АЖ/ПБ;4/18/2019;4/18/2019;4/17/2019;4/17/2019;4/15/2019;4/14/2019;190403-4К
20244;прораб;41;264;14285;3;5;4/18/2019;4/18/2019;190418-АЗ/ПБ;4/18/2019;4/18/2019;4/17/2019;4/17/2019;4/15/2019;4/14/2019;190403-4К
14265;Управляющий Коллегией;41;264;14264;3;5;4/19/2019;4/19/2019;190419-АА/ПБ;4/19/2019;4/19/2019;4/18/2019;4/18/2019;4/16/2019;4/15/2019;190408-2К
14240;Генеральный директор;41;264;14239;3;5;4/12/2019;4/12/2019;190412-АВ/ПБ;4/12/2019;4/12/2019;4/11/2019;4/11/2019;4/9/2019;4/8/2019;190403-3К
20328;Заместитель начальника отдела информационных технологий;41;264;14259;3;5;4/19/2019;4/19/2019;190419-АГ/ПБ;4/19/2019;4/19/2019;4/18/2019;4/18/2019;4/16/2019;4/15/2019;190405-1К
20245;Производитель СМР;41;264;3728;3;5;4/23/2019;4/23/2019;190423-АВ/ПБ;4/23/2019;4/23/2019;4/21/2019;4/21/2019;4/18/2019;4/17/2019;190409-5К
18231;Коммерческий директор;41;264;3728;3;5;4/23/2019;4/23/2019;190423-АГ/ПБ;4/23/2019;4/23/2019;4/21/2019;4/21/2019;4/18/2019;4/17/2019;190409-5К
3729;Генеральный директор;41;264;3728;3;5;4/23/2019;4/23/2019;190423-АД/ПБ;4/23/2019;4/23/2019;4/21/2019;4/21/2019;4/18/2019;4/17/2019;190409-5К
13043;Инженер по автоматизации и диспетчерезации;41;264;6796;3;5;4/23/2019;4/23/2019;190423-АЖ/ПБ;4/23/2019;4/23/2019;4/21/2019;4/21/2019;4/18/2019;4/17/2019;190415-4К
13879;Генеральный директор;41;264;13878;3;5;4/24/2019;4/24/2019;190424-АА/ПБ;4/24/2019;4/24/2019;4/22/2019;4/22/2019;4/19/2019;4/18/2019;190314-4К
18068;Начальник участка;41;264;13880;3;5;4/24/2019;4/24/2019;190424-АБ/ПБ;4/24/2019;4/24/2019;4/22/2019;4/22/2019;4/19/2019;4/18/2019;190314-5К
20246;Производитель работ;41;264;13880;3;5;4/24/2019;4/24/2019;190424-АВ/ПБ;4/24/2019;4/24/2019;4/22/2019;4/22/2019;4/19/2019;4/18/2019;190314-5К
20247;Производитель работ;41;264;13880;3;5;4/24/2019;4/24/2019;190424-АГ/ПБ;4/24/2019;4/24/2019;4/22/2019;4/22/2019;4/19/2019;4/18/2019;190314-5К
20248;Производитель работ;41;264;13880;3;5;4/24/2019;4/24/2019;190424-АД/ПБ;4/24/2019;4/24/2019;4/22/2019;4/22/2019;4/19/2019;4/18/2019;190314-5К
14024;Директор;41;264;14023;3;5;4/26/2019;4/26/2019;190426-АА/ПБ;4/26/2019;4/26/2019;4/25/2019;4/25/2019;4/23/2019;4/22/2019;190408-1К
20249;Руководитель проекта;41;264;4751;3;5;4/29/2019;4/29/2019;190429-АА/ПБ;4/29/2019;4/29/2019;4/27/2019;4/27/2019;4/24/2019;4/23/2019;190415-9К
20250;Производитель работ;41;264;4751;3;5;4/29/2019;4/29/2019;190429-АБ/ПБ;4/29/2019;4/29/2019;4/27/2019;4/27/2019;4/24/2019;4/23/2019;190415-9К
20251;Прораб;41;264;9916;3;5;5/8/2019;5/8/2019;190508-АА/ПБ;5/8/2019;5/8/2019;5/4/2019;5/4/2019;4/30/2019;4/29/2019;190417-4К
14532;Индивидуальный предприниматель;41;264;14531;3;5;5/13/2019;5/13/2019;190513-АА/ПБ;5/13/2019;5/13/2019;5/10/2019;5/10/2019;5/6/2019;5/5/2019;190422-1К
20336;Инженер;41;264;14602;3;5;5/15/2019;5/15/2019;190515-АГ/ПБ;5/15/2019;5/15/2019;5/12/2019;5/12/2019;5/8/2019;5/7/2019;190506-3К
20337;Маляр-штукатур;41;264;14602;3;5;5/15/2019;5/15/2019;190515-АД/ПБ;5/15/2019;5/15/2019;5/12/2019;5/12/2019;5/8/2019;5/7/2019;190506-3К
20338;Бригадир;41;264;14602;3;5;5/15/2019;5/15/2019;190515-АЕ/ПБ;5/15/2019;5/15/2019;5/12/2019;5/12/2019;5/8/2019;5/7/2019;190506-3К
20339;Электромонтажник;41;264;14602;3;5;5/15/2019;5/15/2019;190515-АЖ/ПБ;5/15/2019;5/15/2019;5/12/2019;5/12/2019;5/8/2019;5/7/2019;190506-3К
14595;Генеральный директор;41;264;14594;3;5;5/8/2019;5/8/2019;190508-АБ/ПБ;5/8/2019;5/8/2019;5/4/2019;5/4/2019;4/30/2019;4/29/2019;190423-1К
14636;Директор;41;264;14635;3;5;5/8/2019;5/8/2019;190508-АГ/ПБ;5/8/2019;5/8/2019;5/4/2019;5/4/2019;4/30/2019;4/29/2019;190429-2К
14707;1 зам. ген. директора по производству;41;264;14660;3;5;5/15/2019;5/15/2019;190515-АЗ/ПБ;5/15/2019;5/15/2019;5/12/2019;5/12/2019;5/8/2019;5/7/2019;190415-13К
20252;Коммерческий директор;41;264;14594;3;5;5/21/2019;5/21/2019;190521-АА/ПБ;5/21/2019;5/21/2019;5/19/2019;5/19/2019;5/16/2019;5/15/2019;190506-4К
769;Директор;41;264;768;3;5;5/22/2019;5/22/2019;190522-АА/ПБ;5/22/2019;5/22/2019;5/20/2019;5/20/2019;5/17/2019;5/16/2019;190514-2К
14816;Генеральный директор;41;264;14815;3;5;5/30/2019;5/30/2019;190530-АБ/ПБ;5/30/2019;5/30/2019;5/29/2019;5/29/2019;5/27/2019;5/26/2019;190429-8К
14902;Заместитель генерального директора по общим вопросам;41;264;14815;3;5;5/30/2019;5/30/2019;190530-АВ/ПБ;5/30/2019;5/30/2019;5/29/2019;5/29/2019;5/27/2019;5/26/2019;190429-8К
7401;Заместитель генерального директора по безопасности;41;264;8602;3;5;5/31/2019;5/31/2019;190531-АВ/ПБ;5/31/2019;5/31/2019;5/30/2019;5/30/2019;5/28/2019;5/27/2019;190515-5К
20253;Инженер-электрик;41;264;9784;3;5;5/31/2019;5/31/2019;190531-АГ/ПБ;5/31/2019;5/31/2019;5/30/2019;5/30/2019;5/28/2019;5/27/2019;190521-4К
7401;Руководитель службы оперативного контроля;41;264;8602;3;5;5/20/2019;5/20/2019;190520-АА/ПБ;5/20/2019;5/20/2019;5/18/2019;5/18/2019;5/15/2019;5/14/2019;190515-5К
18543;Прораб;41;264;11768;3;5;6/7/2019;6/7/2019;190607-АА/ПБ;6/7/2019;6/7/2019;6/6/2019;6/6/2019;6/4/2019;6/3/2019;191022-4К
20254;Начальник дерево-обрабатывающего цеха;41;264;13881;3;5;6/7/2019;6/7/2019;190607-АБ/ПБ;6/7/2019;6/7/2019;6/6/2019;6/6/2019;6/4/2019;6/3/2019;190314-6К
20255;Начальник участка;41;264;9916;3;5;6/14/2019;6/14/2019;190614-АА/ПБ;6/14/2019;6/14/2019;6/12/2019;6/12/2019;6/10/2019;6/9/2019;190528-5К
20256;прораб;41;264;9916;3;5;6/14/2019;6/14/2019;190614-АБ/ПБ;6/14/2019;6/14/2019;6/12/2019;6/12/2019;6/10/2019;6/9/2019;190528-5К
20257;Начальник участка;41;264;9916;3;5;6/14/2019;6/14/2019;190614-АВ/ПБ;6/14/2019;6/14/2019;6/12/2019;6/12/2019;6/10/2019;6/9/2019;190528-5К
20258;прораб;41;264;9916;3;5;6/14/2019;6/14/2019;190614-АГ/ПБ;6/14/2019;6/14/2019;6/12/2019;6/12/2019;6/10/2019;6/9/2019;190528-5К
20259;Электромонтажник-бригадир;41;264;9784;3;5;6/11/2019;6/11/2019;190611-АА/ПБ;6/11/2019;6/11/2019;6/9/2019;6/9/2019;6/6/2019;6/5/2019;190527-8К
14951;Генеральный директор;41;264;940;3;5;6/18/2019;6/18/2019;190618-АА/ПБ;6/18/2019;6/18/2019;6/16/2019;6/16/2019;6/13/2019;6/12/2019;190603-13К
20260;Прораб;41;264;9784;3;5;6/11/2019;6/11/2019;190611-АБ/ПБ;6/11/2019;6/11/2019;6/9/2019;6/9/2019;6/6/2019;6/5/2019;190603-13К
20262;Менеджер по ремонту и сервису СИ;41;264;11906;3;5;6/26/2019;6/26/2019;190626-АБ/ПБ;6/26/2019;6/26/2019;6/24/2019;6/24/2019;6/21/2019;6/20/2019;190611-3К
11565;Главный инженер;41;264;5890;3;5;7/10/2019;7/10/2019;ПТМ-Э19/07-Е3C4Ф ;7/10/2019;7/10/2019;7/8/2019;7/8/2019;7/5/2019;7/4/2019;190625-3К
5891;Генеральный директор;41;264;5890;3;5;7/10/2019;7/10/2019; ПТМ-Э19/07-Д30Б1;7/10/2019;7/10/2019;7/8/2019;7/8/2019;7/5/2019;7/4/2019;190625-3К
11566;Главный конструктор-начальник ПКБ;41;264;5890;3;5;7/10/2019;7/10/2019; ПТМ-Э19/07-Ф2Ф6А;7/10/2019;7/10/2019;7/8/2019;7/8/2019;7/5/2019;7/4/2019;190625-3К
12355;Генеральный директор;41;264;12354;3;5;7/16/2019;7/16/2019; ПТМ-Э19/07-Ф13ЕC;7/16/2019;7/16/2019;7/14/2019;7/14/2019;7/11/2019;7/10/2019;190709-1К
9658;Генеральный директор;41;264;9657;3;5;7/17/2019;7/17/2019; ПТМ-Э19/07-4ФЕЕ8;7/17/2019;7/17/2019;7/15/2019;7/15/2019;7/12/2019;7/11/2019;190625-1К
15733;Директор;41;264;15732;3;5;7/8/2019;7/8/2019; ПТМ-Э19/07-4Д4Д1;7/8/2019;7/8/2019;7/6/2019;7/6/2019;7/3/2019;7/2/2019;190701-9К
15879;Начальник участка;41;264;12354;3;5;7/29/2019;7/29/2019; ПТМ-Э19/07-252C3;7/29/2019;7/29/2019;7/27/2019;7/27/2019;7/24/2019;7/23/2019;190715-7К
16298;Генеральный директор;41;264;15297;3;5;7/31/2019;7/31/2019; ПТМ-Э19/07-381ЕА;7/31/2019;7/31/2019;7/29/2019;7/29/2019;7/26/2019;7/25/2019;190718-3К
16191;Агент по снабжению;41;264;14337;3;5;8/15/2019;8/15/2019;ПТМ-Э19/08-436Б6;8/15/2019;8/15/2019;8/14/2019;8/14/2019;8/12/2019;8/11/2019;190725-2К
252;Генеральный директор;41;264;251;3;5;8/27/2019;8/27/2019;0405-БД/ПБ;8/27/2019;8/27/2019;8/25/2019;8/25/2019;8/22/2019;8/21/2019;190812-2К
14628;Заместитель генерального директора-главный инженер проектов;41;264;6094;3;5;9/12/2019;9/12/2019;ПТМ-Э19/09-95АА2 ;9/12/2019;9/12/2019;9/11/2019;9/11/2019;9/9/2019;9/8/2019;190828-3К
16571;Главный технолог;41;264;6094;3;5;9/12/2019;9/12/2019;ПТМ-Э19/09-А65CА ;9/12/2019;9/12/2019;9/11/2019;9/11/2019;9/9/2019;9/8/2019;190828-3К
16570;Генеральный директор;41;264;16569;3;5;9/13/2019;9/13/2019;ПТМ-Э19/09-89А0C ;9/13/2019;9/13/2019;9/12/2019;9/12/2019;9/10/2019;9/9/2019;190902-8К
16511;Генеральный директор;41;264;16510;3;5;9/19/2019;9/19/2019;ПТМ-Э19/09-АД911 ;9/19/2019;9/19/2019;9/18/2019;9/18/2019;9/16/2019;9/15/2019;190902-3К
4712;Генеральный директор;41;264;4711;3;5;9/26/2019;9/26/2019;ПТМ-Э19/09-ЕА916 ;9/26/2019;9/26/2019;9/25/2019;9/25/2019;9/23/2019;9/22/2019;190902-15К
16240;Заместитель директора;41;264;16239;3;5;9/26/2019;9/26/2019;ПТМ-Э19/09-5Ф60Б ;9/26/2019;9/26/2019;9/25/2019;9/25/2019;9/23/2019;9/22/2019;190724-3К
1081;Директор;41;264;1080;3;5;9/30/2019;9/30/2019;ПТМ-Э19/09-4Ф634 ;9/30/2019;9/30/2019;9/28/2019;9/28/2019;9/25/2019;9/24/2019;190918-1К
11368;Кадастровыйинженер;41;264;1080;3;5;9/30/2019;9/30/2019;ПТМ-Э19/09-6138C ;9/30/2019;9/30/2019;9/28/2019;9/28/2019;9/25/2019;9/24/2019;190918-1К
16939;Кадастровыйинженер;41;264;1080;3;5;9/30/2019;9/30/2019;ПТМ-Э19/09-6Ф8ДА ;9/30/2019;9/30/2019;9/28/2019;9/28/2019;9/25/2019;9/24/2019;190918-1К
4470;Директор;41;264;4469;3;5;10/10/2019;10/10/2019;ПТМ-Э19/10-591Д0 ;10/10/2019;10/10/2019;10/9/2019;10/9/2019;10/7/2019;10/6/2019;190918-10К
17024;Начальник участка;41;264;11768;3;5;10/11/2019;10/11/2019;ПТМ-Э19/10-ЕД46А ;10/11/2019;10/11/2019;10/10/2019;10/10/2019;10/8/2019;10/7/2019;190925-1К
16867;Ведущий инженер-дефектоскопист;41;264;10043;3;5;10/24/2019;10/24/2019;ПТМ-Э19/10-0Б003 ;10/24/2019;10/24/2019;10/23/2019;10/23/2019;10/21/2019;10/20/2019;191010-4К
17202;Инженер-дефектоскопист;41;264;10043;3;5;10/24/2019;10/24/2019;ПТМ-Э19/10-1А4Б3 ;10/24/2019;10/24/2019;10/23/2019;10/23/2019;10/21/2019;10/20/2019;191010-4К
18621;Врио директора;41;264;17183;3;5;11/18/2019;11/18/2019; ПТМ-Э19/11-00075;11/18/2019;11/18/2019;11/16/2019;11/16/2019;11/13/2019;11/12/2019;191023-1К
18606;Юрисконсульт;41;264;1233;3;5;11/21/2019;11/21/2019;ПТМ-Э19/11-7ФC11;11/21/2019;11/21/2019;11/20/2019;11/20/2019;11/18/2019;11/17/2019;191111-2К
19288;Индивидуальный предприниматель;41;264;19287;3;5;12/18/2019;12/18/2019;ПТМ-Э19/12-316АФ ;12/18/2019;12/18/2019;12/16/2019;12/16/2019;12/13/2019;12/12/2019;191202-11К
11356;Генеральный директор;41;264;11355;3;5;12/23/2019;12/23/2019;ПТМ-Э19/12-Д0359 ;12/23/2019;12/23/2019;12/21/2019;12/21/2019;12/18/2019;12/17/2019;191112-1К
